{
    "data": [
        {
            "idCliente" : 3643728,
            "nombreCompleto" : "Miguel Coria ",
            "empresa": "Dell SA de CV",
            "email": "aruiz@colonos.com",
            "celular": 376489283,
            "telefonoFijo": 3764838,
            "extension": 67,
            "tipoCliente": "1",
            "direccion": "Alfoso Caso N 409 Zapotitla",
            "razonSocial": "Asociasods de Mexico y Adjuntos",
            "password": "1234567890"
        },
        {
            "idCliente" : 59689,
            "nombreCompleto" : "Armando Morales",
            "empresa": "Colonos SA de CV",
            "email": "ellery@colonos.com",
            "celular": 376489283,
            "telefonoFijo": 234798,
            "extension": 45,
            "tipoCliente": "2",
            "direccion": "Huitzi N 409 Portales",
            "razonSocial": "Asociasods de Mexico y Adjuntos",
            "password": "1234567890"
        },
        {
            "idCliente" : 238949,
            "nombreCompleto" : "Mauricio de la Rosa",
            "empresa": "Colonos SA de CV",
            "email": "aruiz@colonos.com",
            "celular": 3874758,
            "telefonoFijo": 38478,
            "extension": 789,
            "tipoCliente": "2",
            "direccion": "Alfoso Caso N 409 Zapotitla",
            "razonSocial": "Asociasods de Mexico y Adjuntos",
            "password": "1234567890"
        },
        {
            "idCliente" : 95689,
            "nombreCompleto" : "Alejandro Ruiz Cortines",
            "empresa": "Colonos SA de CV",
            "email": "aruiz@colonos.com",
            "celular": 589349,
            "telefonoFijo": 34587,
            "extension": 89,
            "tipoCliente": "1",
            "direccion": "Constituyentes N 409 Alvaro Obregon",
            "razonSocial": "Asociasods de Mexico y Adjuntos",
            "password": "1234567890"
        },
        {
            "idCliente" : 3643728,
            "nombreCompleto" : "Alejandro Ruiz Cortines",
            "empresa": "Colonos SA de CV",
            "email": "aruiz@colonos.com",
            "celular": 376489283,
            "telefonoFijo": 98237489,
            "extension": 456,
            "tipoCliente": "2",
            "direccion": "Alfoso Caso N 409 Zapotitla",
            "razonSocial": "Asociasods de Mexico y Adjuntos",
            "password": "1234567890"
        }
    ]
}