{
    "events": [
        {
            "title": "Guia 3782378",
            "start": "2015-02-09T19:01:30.631Z",
            "backgroundColor": "#44b6ae",
            "allDay": false,
            "idGuia": "3782378",
            "estado": "En Proceso",
            "fechaEntrega": "2015-02-09T06:01:30.631Z",
            "fechaRecepcion": "2015-02-09T02:01:30.631Z",
            "fechaInicio": "2015-02-09T19:01:30.631Z"
        },
        {
            "title": "Guia 823783",
            "start": "2015-02-15T19:01:30.631Z",
            "backgroundColor": "#4884b8",
            "allDay": false,
            "idGuia": "823783",
            "estado": "En Proceso",
            "fechaEntrega": "2015-02-15T06:01:30.631Z",
            "fechaRecepcion": "2015-02-15T02:01:30.631Z",
            "fechaInicio": "2015-02-15T19:01:30.631Z"
        }
    ]
}