{
  "draw": 1,
  "recordsTotal": 20,
  "recordsFiltered": 20,
  "data": [
    {
      "idGuia": 324,
      "cliente": "Juan Hernandez",
      "fechaCreacion": "12/12/2012 9:00",
      "fechaRecogido": "12/12/2012 12:00",
      "fechaEntrega": "12/12/2012 19:00",
      "idEstatus": 3,
      "tiempoTranscurrido": "14 min",
      "kmRecorridos": "1 km",
      "conductor": "Alexis Sanchez",
      "unidad": "435-GFR",
      "direccionOrigen": "Nuevo León 74, Hipódromo, Cuauhtémoc, 06100 Ciudad de México, DF, México",
      "coordenadaOrigen": {
        "lat": 19.4125115,
        "lng": -99.17176469999998
      },
      "direccionDestino": "Avenida Miguel Ángel de Quevedo 250, Santa Catarina, Coyoacán, 04010 Ciudad de México, DF, México",
      "coordenadaDestino": {
        "lat": 19.3465579,
        "lng": -99.17826539999999
      }
    },
    {
      "idGuia": 726378,
      "cliente": "Katia Loza",
      "fechaCreacion": "12/12/2012 9:00",
      "fechaRecogido": "12/12/2012 11:00",
      "fechaEntrega": "12/12/2012 13:00",
      "idEstatus": 2,
      "tiempoTranscurrido": "3 hr",
      "kmRecorridos": "5 km",
      "conductor": "Alexis Sanchez",
      "unidad": "435-GFR",
      "direccionOrigen": "Dr.Barragan 345, Doctores, Cuauhtémoc, 06720 Ciudad de México, DF, México",
      "coordenadaOrigen": {
        "lat": 19.4079482,
        "lng": -99.1463508
      },
      "direccionDestino": "Avenida Insurgentes Sur 2047, San Angel, Álvaro Obregón, 01000 Ciudad de México, DF, México",
      "coordenadaDestino": {
        "lat": 19.3489207,
        "lng": -99.18723820000002
      }
    },
    {
      "idGuia": 234,
      "cliente": "Xavi Hernandez",
      "fechaCreacion": "12/12/2012 10:00",
      "fechaRecogido": "12/12/2012 11:00",
      "fechaEntrega": "12/12/2012 12:00",
      "idEstatus": 1,
      "tiempoTranscurrido": "3 hr",
      "kmRecorridos": "1 km",
      "conductor": "Alexis Sanchez",
      "unidad": "435-GFR",
      "direccionOrigen": "Salvador Díaz Mirón 87, Santa Ana Poniente, Tláhuac, 13300 Ciudad de México, DF, México",
      "coordenadaOrigen": {
        "lat": 19.3041658,
        "lng": -99.04526249999998
      },
      "direccionDestino": "11, Leyes de Reforma 1RA. Sección, Iztapalapa, Ciudad de México, DF, México",
      "coordenadaDestino": {
        "lat": 19.3630842,
        "lng": -99.07147409999999
      }
    },
    {
      "idGuia": 868765,
      "cliente": "Juan Escutia",
      "fechaCreacion": "12/12/2012 11:10",
      "fechaRecogido": "12/12/2012 12:20",
      "fechaEntrega": "12/12/2012 13:00",
      "idEstatus": 3,
      "tiempoTranscurrido": "3 hr",
      "kmRecorridos": "6.4 km",
      "unidad": "435-GFR",
      "direccionOrigen": "Cjon. Las Flores 5, Los Reyes, Coyoacán, 04330 Ciudad de México, DF, México",
      "coordenadaOrigen": {
        "lat": 19.3384906,
        "lng": -99.15661109999996
      },
      "direccionDestino": "Puente Nacional 30-34, San Clemente Norte, Álvaro Obregón, Ciudad de México, DF, México",
      "coordenadaDestino": {
        "lat": 19.3491244,
        "lng": -99.23001750000003
      }
    },
    {
      "idGuia": 36456,
      "cliente": "Alejandra Sabalo",
      "fechaCreacion": "12/12/2012 9:00",
      "fechaRecogido": "12/12/2012 12:00",
      "fechaEntrega": "12/12/2012 19:00",
      "idEstatus": 1,
      "tiempoTranscurrido": "2 hr",
      "kmRecorridos": "14 km",
      "conductor": "Alexis Sanchez",
      "unidad": "435-GFR",
      "direccionOrigen": "Avenida Ricardo Flores Magon 2, Tlatelolco, Cuauhtémoc, 06900 Ciudad de México, DF, México",
      "coordenadaOrigen": {
        "lat": 19.4496497,
        "lng": -99.13776540000003
      },
      "direccionDestino": "Avenida Amsterdam 53, Hipódromo, Cuauhtémoc, 06100 Ciudad de México, DF, México",
      "coordenadaDestino": {
        "lat": 19.4152567,
        "lng": -99.16931210000001
      }
    },
    {
      "idGuia": 6989,
      "cliente": "Pedro Paramo",
      "fechaCreacion": "12/13/2012 9:00",
      "fechaRecogido": "12/14/2012 12:00",
      "fechaEntrega": "12/15/2012 19:00",
      "idEstatus": 2,
      "tiempoTranscurrido": "2 hr",
      "kmRecorridos": "4 km",
      "conductor": "Alexis Sanchez",
      "unidad": "435-GFR",
      "direccionOrigen": "Etzatlán 34, Popular Rastro, Venustiano Carranza, 15220 Ciudad de México, DF, México",
      "coordenadaOrigen": {
        "lat": 19.452743,
        "lng": -99.11986660000002
      },
      "direccionDestino": "Lorenzo Boturini 124, Obrera, Cuauhtémoc, 06800 Ciudad de México, DF, México",
      "coordenadaDestino": {
        "lat": 19.4182684,
        "lng": -99.13729389999997
      }
    }
  ]
}